{
    "Categories": "Qt;KDE;X-KDE-information;",
    "KPlugin": {
        "BugReportUrl": "https://bugs.kde.org/enter_bug.cgi?product=kinfocenter&component=general",
        "Description": "USB devices attached to this computer",
        "Description[ar]": "أجهزة USB الموصولة بهذا الحاسوب",
        "Description[az]": "Bu komputerə qoşulmuş USB qurğular",
        "Description[bg]": "Данни за USB устройствата, свързани към този компютър",
        "Description[ca@valencia]": "Dispositius USB connectats amb este ordinador",
        "Description[ca]": "Dispositius USB connectats amb aquest ordinador",
        "Description[cs]": "USB zařízení připojená k tomuto počítači",
        "Description[de]": "Angeschlossene USB-Geräte",
        "Description[en_GB]": "USB devices attached to this computer",
        "Description[eo]": "USB-aparatoj ĉe via komputilo",
        "Description[es]": "Dispositivos USB conectados a este equipo",
        "Description[et]": "Arvutiga ühendatud USB-seadmed",
        "Description[eu]": "Ordenagailu honi erantsitako USB gailuak",
        "Description[fi]": "Näytä tietokoneeseen liitetyt USB-laitteet",
        "Description[fr]": "Périphériques USB branchés à cet ordinateur",
        "Description[gl]": "Consulta os dispositivos USB conectados a este computador.",
        "Description[he]": "התקני USB שמחוברים למחשב הזה",
        "Description[ia]": "Dispositivos USB attachate a iste computator",
        "Description[id]": "Perangkat USB yang tertancap ke komputer ini",
        "Description[is]": "USB-tæki sem eru tengd við þessa tölvu",
        "Description[it]": "Dispositivi USB collegati al computer",
        "Description[ja]": "コンピュータに接続されている USB デバイス",
        "Description[ka]": "ამ კომპიუტერზე მიერთებული USB მოწყობილობები",
        "Description[ko]": "이 컴퓨터에 연결된 USB 장치",
        "Description[lt]": "Prie šio kompiuterio prijungti USB įrenginiai",
        "Description[nl]": "USB-apparaten die op deze computer zijn aangesloten",
        "Description[nn]": "USB-einingar kopla til datamaskina",
        "Description[pl]": "Urządzenia USB podłączone do tego komputera",
        "Description[pt]": "Ver os dispositivos USB ligados a este computador",
        "Description[pt_BR]": "Dispositivos USB conectados a este computador",
        "Description[ro]": "Dispozitive USB conectate la acest calculator",
        "Description[ru]": "Подключённые устройства USB",
        "Description[sk]": "USB zariadenia pripojené k tomuto počítaču",
        "Description[sl]": "USB naprave priključene na ta računalnik",
        "Description[sv]": "USB-enheter anslutna till datorn",
        "Description[ta]": "இக்கணினியோடு இணைக்கப்பட்டுள்ள USB சாதனங்கள்",
        "Description[tr]": "Bu Bilgisayara Bağlı USB Aygıtları",
        "Description[uk]": "Пристроїв USB, під'єднаних до комп'ютера",
        "Description[vi]": "Các thiết bị USB nối với máy tính này",
        "Description[x-test]": "xxUSB devices attached to this computerxx",
        "Description[zh_CN]": "本机已连接的 USB 设备",
        "Description[zh_TW]": "連接到這台電腦的 USB 裝置",
        "Icon": "drive-removable-media-usb-pendrive",
        "Name": "USB Devices",
        "Name[af]": "USB Toestelle",
        "Name[ar]": "أجهزة USB",
        "Name[as]": "USB যন্ত্ৰ",
        "Name[ast]": "Preseos USB",
        "Name[az]": "USB qurğular",
        "Name[be@latin]": "Pryłady USB",
        "Name[be]": "USB прылады",
        "Name[bg]": "Устройства USB",
        "Name[bn]": "ইউ-এস-বি ডিভাইস",
        "Name[bn_IN]": "USB ডিভাইস",
        "Name[br]": "Trobarzhelloù USB",
        "Name[bs]": "USB uređaji",
        "Name[ca@valencia]": "Dispositius USB",
        "Name[ca]": "Dispositius USB",
        "Name[cs]": "USB zařízení",
        "Name[csb]": "Ùrządzenia USB",
        "Name[cy]": "Dyfeisiau USB",
        "Name[da]": "USB-enheder",
        "Name[de]": "USB-Geräte",
        "Name[el]": "Συσκευές USB",
        "Name[en_GB]": "USB Devices",
        "Name[eo]": "USB-aparatoj",
        "Name[es]": "Dispositivos USB",
        "Name[et]": "USB-seadmed",
        "Name[eu]": "USB gailuak",
        "Name[fa]": "دستگاههای گذرگاه سریال جهانی",
        "Name[fi]": "USB-laitteet",
        "Name[fr]": "Périphériques USB",
        "Name[fy]": "USB-apparaten",
        "Name[ga]": "Gléasanna USB",
        "Name[gl]": "Dispositivos USB",
        "Name[gu]": "USB ઉપકરણો",
        "Name[he]": "התקני USB",
        "Name[hi]": "यूएसबी औज़ार",
        "Name[hne]": "यूएसबी उपकरन",
        "Name[hr]": "USB uređaji",
        "Name[hsb]": "USB-graty",
        "Name[hu]": "USB-eszközök",
        "Name[ia]": "Dispositivos USB",
        "Name[id]": "Peranti USB",
        "Name[is]": "USB-tæki",
        "Name[it]": "Dispositivi USB",
        "Name[ja]": "USB デバイス",
        "Name[ka]": "USB მოწყობილობები",
        "Name[kk]": "USB құрылғылар",
        "Name[km]": "ឧបករណ៍​យូអេសប៊ី",
        "Name[kn]": "USB ಸಾಧನಗಳು",
        "Name[ko]": "USB 장치",
        "Name[ku]": "Cîhazên USB",
        "Name[lt]": "USB įrenginiai",
        "Name[lv]": "USB ierīces",
        "Name[mai]": "यूएसबी युक्ति",
        "Name[mk]": "USB-уреди",
        "Name[ml]": "യുഎസ്ബി ഉപകരണങ്ങള്‍",
        "Name[mr]": "USB साधने",
        "Name[ms]": "Peranti USB",
        "Name[nb]": "USB-enheter",
        "Name[nds]": "USB-Reedschappen",
        "Name[ne]": "यूएसबी यन्त्र",
        "Name[nl]": "USB-apparaten",
        "Name[nn]": "USB-einingar",
        "Name[or]": "USB ଉପକରଣ",
        "Name[pa]": "USB ਡਿਵਾਈਸ",
        "Name[pl]": "Urządzenia USB",
        "Name[pt]": "Dispositivos USB",
        "Name[pt_BR]": "Dispositivos USB",
        "Name[ro]": "Dispozitive USB",
        "Name[ru]": "Устройства USB",
        "Name[se]": "USB-ovttadagat",
        "Name[si]": "USB මෙවලම්",
        "Name[sk]": "Zariadenia USB",
        "Name[sl]": "Naprave USB",
        "Name[sr@ijekavian]": "УСБ уређаји",
        "Name[sr@ijekavianlatin]": "USB uređaji",
        "Name[sr@latin]": "USB uređaji",
        "Name[sr]": "УСБ уређаји",
        "Name[sv]": "USB-enheter",
        "Name[ta]": "USB கருவிகள்",
        "Name[te]": "యూ ఎస్ బి పరికరాలు",
        "Name[tg]": "Дастгоҳҳои USB",
        "Name[th]": "อุปกรณ์ USB",
        "Name[tr]": "USB Aygıtları",
        "Name[ug]": "USB ئۈسكۈنىلىرىنى",
        "Name[uk]": "Пристрої USB",
        "Name[uz@cyrillic]": "USB ускуналар",
        "Name[uz]": "USB uskunalar",
        "Name[vi]": "Thiết bị USB",
        "Name[wa]": "Éndjins USB",
        "Name[x-test]": "xxUSB Devicesxx",
        "Name[xh]": "Amacebo e USB",
        "Name[zh_CN]": "USB设备",
        "Name[zh_TW]": "USB 裝置"
    },
    "X-DocPath": "kinfocenter/devinfo.html#kcmusb",
    "X-KDE-KInfoCenter-Category": "device_information",
    "X-KDE-Keywords": "USB,devices,viewer,control",
    "X-KDE-Keywords[ar]": "USB,أجهزة,عارض,تحكّم",
    "X-KDE-Keywords[ast]": "USB,preseos,visor,control",
    "X-KDE-Keywords[az]": "USB,devices,viewer,control,qurğu,baxış,nəzarət,idarəetmə",
    "X-KDE-Keywords[bs]": "Usb,uređaji,gledatelj,kontrola",
    "X-KDE-Keywords[ca@valencia]": "USB,dispositius,visor,control",
    "X-KDE-Keywords[ca]": "USB,dispositius,visor,control",
    "X-KDE-Keywords[cs]": "USB,zařízení,prohlížeč,ovládání",
    "X-KDE-Keywords[da]": "USB,enheder,fremviser,kontrol",
    "X-KDE-Keywords[de]": "USB,Geräte,Betrachter,Steuerung",
    "X-KDE-Keywords[el]": "USB,συσκευές,προβολέας,έλεγχος",
    "X-KDE-Keywords[en_GB]": "USB,devices,viewer,control",
    "X-KDE-Keywords[es]": "USB,dispositivos,visor,control",
    "X-KDE-Keywords[et]": "USB,seadmed,näitaja,juhtimine",
    "X-KDE-Keywords[eu]": "USB,gailuak,erakuslea,ikustailea,kontrola",
    "X-KDE-Keywords[fi]": "USB,laitteet,katselin,näytin,hallinta",
    "X-KDE-Keywords[fr]": "USB, périphériques, afficheur, contrôle",
    "X-KDE-Keywords[ga]": "USB,gléasanna,amharcán,rialú",
    "X-KDE-Keywords[gl]": "USB,dispositivo,visor,control",
    "X-KDE-Keywords[hu]": "USB,eszközök,megjelenítő,beállítás",
    "X-KDE-Keywords[ia]": "USB,dispositivos,visor,controlo",
    "X-KDE-Keywords[id]": "USB,perangkat,penampil,kendali",
    "X-KDE-Keywords[it]": "USB,dispositivi,visualizzatore,controllo",
    "X-KDE-Keywords[kk]": "USB,devices,viewer,control",
    "X-KDE-Keywords[km]": "USB,devices,viewer,control",
    "X-KDE-Keywords[ko]": "USB,devices,viewer,control,장치,뷰어,제어",
    "X-KDE-Keywords[lt]": "USB,įrenginiai,irenginiai,žiūryklė,ziurykle,kontrolė,kontrole,valdymas",
    "X-KDE-Keywords[mr]": "USB साधने, प्रदर्शक, नियंत्रण",
    "X-KDE-Keywords[nb]": "USB,enheter,visning,styring",
    "X-KDE-Keywords[nds]": "USB,Reedschappen,Kieker,Stüern",
    "X-KDE-Keywords[nl]": "USB,apparaten,viewer,besturing",
    "X-KDE-Keywords[nn]": "USB,einingar,vising,styring,kontroll",
    "X-KDE-Keywords[pa]": "ਯੂਐਸਬੀ,ਡਿਵਾਈਸ,ਦਰਸ਼ਕ,ਕੰਟਰੋਲ",
    "X-KDE-Keywords[pl]": "USB,urządzenia,przeglądarka,sterowanie",
    "X-KDE-Keywords[pt]": "USB,dispositivos,visualizador,controlo",
    "X-KDE-Keywords[pt_BR]": "USB,dispositivos,visualizador,controle",
    "X-KDE-Keywords[ro]": "USB,dispozitive,vizualizor,control",
    "X-KDE-Keywords[ru]": "USB,devices,viewer,control,устройства,просмотр,контроль,управление",
    "X-KDE-Keywords[sk]": "USB,zariadenia,prehliadač,ovládanie",
    "X-KDE-Keywords[sl]": "USB,naprave,krmilniki,pregledovalnik,nadzor",
    "X-KDE-Keywords[sr@ijekavian]": "USB,devices,viewer,control,УСБ,уређаји,приказивач,управљање",
    "X-KDE-Keywords[sr@ijekavianlatin]": "USB,devices,viewer,control,USB,uređaji,prikazivač,upravljanje",
    "X-KDE-Keywords[sr@latin]": "USB,devices,viewer,control,USB,uređaji,prikazivač,upravljanje",
    "X-KDE-Keywords[sr]": "USB,devices,viewer,control,УСБ,уређаји,приказивач,управљање",
    "X-KDE-Keywords[sv]": "USB,enheter,visning,kontroll",
    "X-KDE-Keywords[tr]": "USB,aygıtlar,gösterici,denetim",
    "X-KDE-Keywords[uk]": "USB,devices,viewer,control,пристрій,пристрої,перегляд,переглядач,керування,контроль",
    "X-KDE-Keywords[vi]": "USB,devices,viewer,control,thiết bị,trình xem,điều khiển",
    "X-KDE-Keywords[x-test]": "xxUSBxx,xxdevicesxx,xxviewerxx,xxcontrolxx",
    "X-KDE-Keywords[zh_CN]": "USB,devices,viewer,control,设备,查看器,控制",
    "X-KDE-Keywords[zh_TW]": "USB,devices,viewer,control"
}
