{
    "Categories": "Qt;KDE;X-KDE-information;",
    "KPlugin": {
        "BugReportUrl": "https://bugs.kde.org/enter_bug.cgi?product=kinfocenter&component=general",
        "Description": "Interrupt information",
        "Description[ar]": "معلومات المقاطعات",
        "Description[az]": "Boşdayanma haqqında məlumat",
        "Description[bg]": "Данни за прекъсванията в системата",
        "Description[ca@valencia]": "Informació de les interrupcions",
        "Description[ca]": "Informació de les interrupcions",
        "Description[cs]": "Informace o přerušeních",
        "Description[de]": "Informationen zu Interrupts",
        "Description[en_GB]": "Interrupt information",
        "Description[eo]": "Informo pri interrompoj",
        "Description[es]": "Información sobre interrupciones",
        "Description[et]": "Katkestuste info",
        "Description[eu]": "Etenen informazioa",
        "Description[fi]": "Keskeytystiedot",
        "Description[fr]": "Informations concernant les interruptions",
        "Description[gl]": "Información das interrupcións.",
        "Description[he]": "פרטי פסיקות",
        "Description[ia]": "Information de Interrupt",
        "Description[id]": "Informasi Interupsi",
        "Description[is]": "Upplýsingar um rof",
        "Description[it]": "Informazioni sugli interrupt",
        "Description[ja]": "割り込みの情報",
        "Description[ka]": "ინფორმაცია წყვეტებზე",
        "Description[ko]": "인터럽트 정보",
        "Description[lt]": "Informacija apie pertrauktis",
        "Description[nl]": "Interrupt-informatie",
        "Description[nn]": "Avbrotslinjeinformasjon",
        "Description[pl]": "Szczegóły o przerwaniach",
        "Description[pt]": "Informação das interrupções",
        "Description[pt_BR]": "Informações sobre as interrupções",
        "Description[ro]": "Informații despre întreruperi",
        "Description[ru]": "Сведения о прерываниях",
        "Description[sk]": "Informácie o prerušeniach",
        "Description[sl]": "Informacije o prekinitvah",
        "Description[sv]": "Avbrottsinformation",
        "Description[ta]": "குறுக்கீட்டுகள் குறித்த விவரங்கள்",
        "Description[tr]": "Yarıda Kesmeler Bilgisi",
        "Description[uk]": "Інформація щодо переривань",
        "Description[vi]": "Thông tin ngắt",
        "Description[x-test]": "xxInterrupt informationxx",
        "Description[zh_CN]": "中断信息",
        "Description[zh_TW]": "中斷資訊",
        "Icon": "cpu",
        "Name": "Interrupts",
        "Name[af]": "Interrupts",
        "Name[ar]": "المقاطعات",
        "Name[as]": "Interrupts",
        "Name[az]": "Fasilə",
        "Name[be@latin]": "Pierarvańni",
        "Name[be]": "Перапыненні",
        "Name[bg]": "Прекъсвания",
        "Name[bn]": "ইনটরাপ্ট",
        "Name[bn_IN]": "ইন্টারাপ্ট",
        "Name[br]": "Spanoù",
        "Name[bs]": "Prekidi",
        "Name[ca@valencia]": "Interrupcions",
        "Name[ca]": "Interrupcions",
        "Name[cs]": "Přerušení",
        "Name[csb]": "Przerwania",
        "Name[cy]": "Ymyriadau",
        "Name[da]": "Interrupts",
        "Name[de]": "Interrupts",
        "Name[el]": "Διακόπτες",
        "Name[en_GB]": "Interrupts",
        "Name[eo]": "Interrompoj",
        "Name[es]": "Interrupciones",
        "Name[et]": "Katkestused",
        "Name[eu]": "Etenak",
        "Name[fa]": "وقفه‌ها",
        "Name[fi]": "Keskeytykset",
        "Name[fr]": "Interruptions",
        "Name[fy]": "Underbrekkings",
        "Name[ga]": "Idirbhristeacha",
        "Name[gl]": "Interrupcións",
        "Name[gu]": "ઇન્ટર્પસ",
        "Name[he]": "פסיקות",
        "Name[hi]": "इंटरप्ट्स",
        "Name[hne]": "इंटरप्ट्स",
        "Name[hr]": "Prekidi",
        "Name[hsb]": "Interrupty",
        "Name[hu]": "Megszakítások",
        "Name[ia]": "Interrupts",
        "Name[id]": "Interupsi",
        "Name[is]": "Rof",
        "Name[it]": "Interrupt",
        "Name[ja]": "割り込み",
        "Name[ka]": "წყვეტები",
        "Name[kk]": "Үзілімдер",
        "Name[km]": "ផ្អាក​",
        "Name[kn]": "ಅಂತರಾಯಗಳು (ಇಂಟರಪ್ಟ್)",
        "Name[ko]": "인터럽트",
        "Name[ku]": "Qutkirin",
        "Name[lt]": "Pertrauktys",
        "Name[lv]": "Pārtraukumi",
        "Name[mai]": "इंटरप्ट्स",
        "Name[mk]": "Прекини",
        "Name[ml]": "ഇന്ററപ്റ്റുകള്‍",
        "Name[mr]": "इंटरप्ट्स",
        "Name[ms]": "Sampukan",
        "Name[nb]": "Avbruddslinjer",
        "Name[nds]": "Interrupts",
        "Name[ne]": "रोकावट",
        "Name[nl]": "Interrupts",
        "Name[nn]": "Avbrotslinjer",
        "Name[or]": "ବ୍ୟାହାତ",
        "Name[pa]": "ਇੰਟਰਰੱਪਟ",
        "Name[pl]": "Przerwania",
        "Name[pt]": "Interrupções",
        "Name[pt_BR]": "Interrupções",
        "Name[ro]": "Întreruperi",
        "Name[ru]": "Прерывания",
        "Name[se]": "Gaskkaldumit",
        "Name[si]": "අතුරුබිඳුම්",
        "Name[sk]": "Prerušenia",
        "Name[sl]": "Prekinitve",
        "Name[sr@ijekavian]": "Прекиди",
        "Name[sr@ijekavianlatin]": "Prekidi",
        "Name[sr@latin]": "Prekidi",
        "Name[sr]": "Прекиди",
        "Name[sv]": "Avbrott",
        "Name[ta]": "குறுக்கீடுகள்",
        "Name[te]": "ఇంటెరప్టులు",
        "Name[th]": "อินเทอร์รัพต์",
        "Name[tr]": "Yarıda Kesmeler",
        "Name[ug]": "ئۈزۈلۈشلەر",
        "Name[uk]": "Переривання",
        "Name[uz@cyrillic]": "Тўхталишлар",
        "Name[uz]": "Toʻxtalishlar",
        "Name[vi]": "Ngắt",
        "Name[wa]": "Boutoes",
        "Name[x-test]": "xxInterruptsxx",
        "Name[xh]": "Iziphazamiso",
        "Name[zh_CN]": "中断",
        "Name[zh_TW]": "中斷"
    },
    "X-KDE-KInfoCenter-Category": "device_information",
    "X-KDE-Keywords": "Interrupts,IRQ,System Information",
    "X-KDE-Keywords[ar]": "مقاطعات,IRQ,معلومات النّظام",
    "X-KDE-Keywords[ast]": "Interrupciones,IRQ,Información del sistema,Información,Sistema",
    "X-KDE-Keywords[az]": "Interrupts,IRQ,System Information,fasilə,sistem haqqında məlumat",
    "X-KDE-Keywords[bs]": "Prekidi, IRQ, Sistemske informacije",
    "X-KDE-Keywords[ca@valencia]": "Interrupcions,IRQ,Informació del sistema",
    "X-KDE-Keywords[ca]": "Interrupcions,IRQ,Informació del sistema",
    "X-KDE-Keywords[cs]": "Přerušení,IRQ,Systémové informace",
    "X-KDE-Keywords[da]": "Interrupts,IRQ,Systeminformation",
    "X-KDE-Keywords[de]": "Interrupts,IRQ,Systeminformationen",
    "X-KDE-Keywords[el]": "Διακόπτες,IRQ,Πληροφορίες συστήματος",
    "X-KDE-Keywords[en_GB]": "Interrupts,IRQ,System Information",
    "X-KDE-Keywords[es]": "Interruptores,IRQ,Información sobre el sistema",
    "X-KDE-Keywords[et]": "Katkestused,IRQ,süsteemi teave",
    "X-KDE-Keywords[eu]": "etenak,IRQ,sistema-informazioa",
    "X-KDE-Keywords[fi]": "Keskeytykset,IRQ,Järjestelmätiedot",
    "X-KDE-Keywords[fr]": "Interruptions, IRQ, Informations système",
    "X-KDE-Keywords[ga]": "Idirbhristeacha,IRQ,Eolas faoin Chórais",
    "X-KDE-Keywords[gl]": "interrupcións,irq,información do sistema",
    "X-KDE-Keywords[he]": "Interrupts,IRQ,System Information,פסיקות,מידע",
    "X-KDE-Keywords[hu]": "Megszakítások,IRQ,Rendszerjellemzők",
    "X-KDE-Keywords[ia]": "Interrupts,IRQ,Information de systema",
    "X-KDE-Keywords[id]": "Interupsi,IRQ,Informasi Sistem",
    "X-KDE-Keywords[it]": "Interrupt,IRQ,Informazioni di sistema",
    "X-KDE-Keywords[kk]": "Interrupts,IRQ,System Information",
    "X-KDE-Keywords[km]": "ផ្អាក IRQ ព័ត៌មាន​ប្រព័ន្ធ",
    "X-KDE-Keywords[ko]": "Interrupts,IRQ,System Information,인터럽트,시스템 정보",
    "X-KDE-Keywords[lt]": "Pertraukimai,IRQ,Sistemos informacija,pertrauktys,informacija apie sistemą,informacija apie sistema",
    "X-KDE-Keywords[mr]": "व्यवधाने, IRQ, प्रणाली माहीती",
    "X-KDE-Keywords[nb]": "Avbruddslinjer,IRQ,systeminformasjon",
    "X-KDE-Keywords[nds]": "Interrupts,IRQ,Interruptinformatschoon",
    "X-KDE-Keywords[nl]": "Interrupts,IRQ,systeeminformatie",
    "X-KDE-Keywords[nn]": "avbrotslinjer,IRQ,systeminformasjon",
    "X-KDE-Keywords[pa]": "ਇੰਟਰਰੱਪਟ,IRQ,ਸਿਸਟਮ ਜਾਣਕਾਰੀ",
    "X-KDE-Keywords[pl]": "Przerywania,IRQ,Dane o systemie",
    "X-KDE-Keywords[pt]": "Interrupções,IRQ,Informação do sistema",
    "X-KDE-Keywords[pt_BR]": "Interrupções,IRQ,Informação do sistema",
    "X-KDE-Keywords[ro]": "întreruperi;IRQ;informații;sistem",
    "X-KDE-Keywords[ru]": "Interrupts,IRQ,System Information,прерываниях,сведения о системе",
    "X-KDE-Keywords[sk]": "Prerušenia,IRQ,Systémové informácie",
    "X-KDE-Keywords[sl]": "Prekinitve,IRQ,Sistemski podatki,Podatki o sistemu",
    "X-KDE-Keywords[sr@ijekavian]": "Interrupts,IRQ,System Information,прекиди,ИРКу,системске информације",
    "X-KDE-Keywords[sr@ijekavianlatin]": "Interrupts,IRQ,System Information,prekidi,IRQ,sistemske informacije",
    "X-KDE-Keywords[sr@latin]": "Interrupts,IRQ,System Information,prekidi,IRQ,sistemske informacije",
    "X-KDE-Keywords[sr]": "Interrupts,IRQ,System Information,прекиди,ИРКу,системске информације",
    "X-KDE-Keywords[sv]": "Avbrott,IRQ,Systeminformation",
    "X-KDE-Keywords[tr]": "Kesmeler,IRQ,Sistem Bilgileri",
    "X-KDE-Keywords[uk]": "Interrupts,IRQ,System Information,переривання,система,інформація,відомості",
    "X-KDE-Keywords[vi]": "Interrupts,IRQ,System Information,Ngắt,Thông tin hệ thống",
    "X-KDE-Keywords[x-test]": "xxInterruptsxx,xxIRQxx,xxSystem Informationxx",
    "X-KDE-Keywords[zh_CN]": "Interrupts,IRQ,System Information,中断,系统信息",
    "X-KDE-Keywords[zh_TW]": "Interrupts,IRQ,System Information"
}
